blog_326 - 03 - Confidence Intervals
…
generate_samp_prop(n,p)

# A tibble: 1 × 3
   phat    lb    ub
  <dbl> <dbl> <dbl>
1 0.498 0.487 0.510

#How many CI's we want
n_sim <- 1000

prop_ci_df <- map(1:n_sim, \(i) generate_samp_prop(n,p)) |> 
  bind_rows()
prop_ci_df

# A tibble: 1,000 × 3
    phat    lb    ub
   <dbl> <dbl> <dbl>
 1 0.500 0.488 0.511
 2 0.499 0.487 0.511
 3 0.497 0.485 0.508
 4 0.497 0.485 0.508
 5 0.498 0.487 0.510
 6 0.498 0.487 0.510
 7 0.501 0.489 0.512
 8 0.505 0.493 0.517
 9 0.497 0.486 0.509
10 0.512 0.500 0.524
# ℹ 990 more rows
…
generate_samp_prop(n,p)

# A tibble: 1 × 3
   phat    lb    ub
  <dbl> <dbl> <dbl>
1  0.51 0.428 0.592

#How many CI's we want
n_sim <- 1000

prop_ci_df <- map(1:n_sim, \(i) generate_samp_prop(n,p)) |> 
  bind_rows()
prop_ci_df

# A tibble: 1,000 × 3
    phat    lb    ub
   <dbl> <dbl> <dbl>
 1  0.53 0.448 0.612
 2  0.5  0.418 0.582
 3  0.49 0.408 0.572
 4  0.49 0.408 0.572
 5  0.47 0.388 0.552
 6  0.44 0.358 0.522
 7  0.61 0.530 0.690
 8  0.58 0.499 0.661
 9  0.47 0.388 0.552
10  0.53 0.448 0.612
# ℹ 990 more rows
…
generate_samp_prop(n,p)

# A tibble: 1 × 3
   phat    lb    ub
  <dbl> <dbl> <dbl>
1   0.6 0.240 0.960

#How many CI's we want
n_sim <- 1000

prop_ci_df <- map(1:n_sim, \(i) generate_samp_prop(n,p)) |> 
  bind_rows()
prop_ci_df

# A tibble: 1,000 × 3
    phat      lb    ub
   <dbl>   <dbl> <dbl>
 1   0.6  0.240  0.960
 2   0.6  0.240  0.960
 3   0.6  0.240  0.960
 4   0.2 -0.0943 0.494
 5   0.6  0.240  0.960
 6   0.6  0.240  0.960
 7   0.4  0.0396 0.760
 8   0.4  0.0396 0.760
 9   0.2 -0.0943 0.494
10   0.4  0.0396 0.760
# ℹ 990 more rows
…
generate_samp_prop(n,p)

# A tibble: 1 × 3
   phat    lb    ub
  <dbl> <dbl> <dbl>
1 0.900 0.893 0.907

#How many CI's we want
n_sim <- 1000

prop_ci_df <- map(1:n_sim, \(i) generate_samp_prop(n,p)) |> 
  bind_rows()
prop_ci_df

# A tibble: 1,000 × 3
    phat    lb    ub
   <dbl> <dbl> <dbl>
 1 0.898 0.891 0.905
 2 0.899 0.892 0.906
 3 0.905 0.899 0.912
 4 0.902 0.895 0.909
 5 0.906 0.899 0.913
 6 0.901 0.894 0.908
 7 0.903 0.896 0.910
 8 0.899 0.892 0.906
 9 0.891 0.884 0.898
10 0.904 0.897 0.911
# ℹ 990 more rows
…
generate_samp_prop(n,p)

# A tibble: 1 × 3
   phat    lb    ub
  <dbl> <dbl> <dbl>
1  0.91 0.863 0.957

#How many CI's we want
n_sim <- 1000

prop_ci_df <- map(1:n_sim, \(i) generate_samp_prop(n,p)) |> 
  bind_rows()
prop_ci_df

# A tibble: 1,000 × 3
    phat    lb    ub
   <dbl> <dbl> <dbl>
 1  0.94 0.901 0.979
 2  0.91 0.863 0.957
 3  0.87 0.815 0.925
 4  0.87 0.815 0.925
 5  0.92 0.875 0.965
 6  0.89 0.839 0.941
 7  0.92 0.875 0.965
 8  0.91 0.863 0.957
 9  0.93 0.888 0.972
10  0.93 0.888 0.972
# ℹ 990 more rows
…
generate_samp_prop(n,p)

# A tibble: 1 × 3
   phat    lb    ub
  <dbl> <dbl> <dbl>
1     1     1     1

#How many CI's we want
n_sim <- 1000

prop_ci_df <- map(1:n_sim, \(i) generate_samp_prop(n,p)) |> 
  bind_rows()
prop_ci_df

# A tibble: 1,000 × 3
    phat    lb    ub
   <dbl> <dbl> <dbl>
 1   0.8 0.506 1.09 
 2   1   1     1    
 3   0.6 0.240 0.960
 4   0.6 0.240 0.960
 5   1   1     1    
 6   0.8 0.506 1.09 
 7   0.8 0.506 1.09 
 8   1   1     1    
 9   0.8 0.506 1.09 
10   1   1     1    
# ℹ 990 more rows
…
