blog_326 - 01 - Simulation
…
[1] 8.838446

nsim <- 5000      # number of simulations

## code to map through the function. 
## the \(i) syntax says to just repeat the generate_samp_min function
## nsim times
norm_mins <- map_dbl(1:nsim, \(i) generate_samp_min(mu = mu, sigma = sigma, n = n))

## print some of the 5000 mins
## each number represents the sample min from __one__ sample.
norm_mins_df <- tibble(norm_mins)
norm_mins_df

# A tibble: 5,000 × 1
   norm_mins
       <dbl>
 1      7.23
 2      7.59
 3      7.57
 4      8.03
 5      9.16
 6      9.07
 7      7.57
 8      8.12
 9      8.63
10      6.72
# ℹ 4,990 more rows
…
[1] 12.11905

nsim <- 5000      # number of simulations

## code to map through the function. 
## the \(i) syntax says to just repeat the generate_samp_min function
## nsim times
maxs <- map_dbl(1:nsim, \(i) generate_samp_max(mu = mu, sigma = sigma, n = n))

## print some of the 5000 mins
## each number represents the sample min from __one__ sample.
norm_maxs_df <- tibble(maxs)
norm_maxs_df

# A tibble: 5,000 × 1
    maxs
   <dbl>
 1  11.3
 2  13.8
 3  12.6
 4  11.7
 5  10.5
 6  10.4
 7  12.6
 8  11.5
 9  14.6
10  13.6
# ℹ 4,990 more rows
…
[1] 7.121323

#> [1] 3.915946

nsim <- 5000      # number of simulations

unif_mins <- map_dbl(1:nsim, \(i) generate_unif_min(theta1 = theta1, theta2=theta2, n = n))

## print some of the 5000 means
## each number represents the sample mean from __one__ sample.
unif_mins_df <- tibble(unif_mins)
unif_mins_df

# A tibble: 5,000 × 1
   unif_mins
       <dbl>
 1      7.02
 2      8.54
 3      7.05
 4      8.05
 5      7.88
 6      8.29
 7     10.2 
 8      7.83
 9      7.27
10      7.47
# ℹ 4,990 more rows
…
[1] 12.16577

#> [1] 3.915946

nsim <- 5000      # number of simulations

unif_maxs <- map_dbl(1:nsim, \(i) generate_unif_max(theta1 = theta1, theta2=theta2, n = n))

## print some of the 5000 means
## each number represents the sample mean from __one__ sample.
unif_maxs_df <- tibble(unif_maxs)
unif_maxs_df

# A tibble: 5,000 × 1
   unif_maxs
       <dbl>
 1      11.8
 2      12.3
 3      11.1
 4      11.6
 5      12.4
 6      10.8
 7      12.8
 8      12.5
 9      10.6
10      12.0
# ℹ 4,990 more rows
…
[1] 0.002978954

#> [1] 3.915946

nsim <- 5000      # number of simulations

exp_mins <- map_dbl(1:nsim, \(i) generate_exp_min(lambda = lambda, n = n))

## print some of the 5000 means
## each number represents the sample mean from __one__ sample.
exp_mins_df <- tibble(exp_mins)
exp_mins_df

# A tibble: 5,000 × 1
   exp_mins
      <dbl>
 1   0.233 
 2   0.778 
 3   0.888 
 4   0.116 
 5   0.407 
 6   0.330 
 7   0.0195
 8   1.43  
 9   0.687 
10   2.68  
# ℹ 4,990 more rows
…
[1] 4.968905

#> [1] 3.915946

nsim <- 5000      # number of simulations

exp_maxs <- map_dbl(1:nsim, \(i) generate_exp_max(lambda = lambda, n = n))

## print some of the 5000 means
## each number represents the sample mean from __one__ sample.
exp_maxs_df <- tibble(exp_maxs)
exp_maxs_df

# A tibble: 5,000 × 1
   exp_maxs
      <dbl>
 1     4.47
 2     4.26
 3     4.65
 4     3.63
 5     4.15
 6     5.78
 7     5.80
 8     5.44
 9     3.71
10     3.80
# ℹ 4,990 more rows
…
[1] 0.6964316

#> [1] 3.915946

nsim <- 5000      # number of simulations

beta_mins <- map_dbl(1:nsim, \(i) generate_beta_min(alpha = alpha, beta=beta, n = n))

## print some of the 5000 means
## each number represents the sample mean from __one__ sample.
beta_mins_df <- tibble(beta_mins)
beta_mins_df

# A tibble: 5,000 × 1
   beta_mins
       <dbl>
 1     0.716
 2     0.713
 3     0.565
 4     0.404
 5     0.518
 6     0.776
 7     0.810
 8     0.341
 9     0.539
10     0.628
# ℹ 4,990 more rows
…
[1] 0.7841302

#> [1] 3.915946

nsim <- 5000      # number of simulations

maxs <- map_dbl(1:nsim, \(i) generate_beta_max(alpha = alpha, beta=beta, n = n))

## print some of the 5000 means
## each number represents the sample mean from __one__ sample.
beta_maxs_df <- tibble(maxs)
beta_maxs_df

# A tibble: 5,000 × 1
    maxs
   <dbl>
 1 0.808
 2 0.941
 3 0.975
 4 0.875
 5 0.914
 6 0.968
 7 0.879
 8 0.962
 9 0.779
10 0.898
# ℹ 4,990 more rows
…
