blog_326 - 04 - Bayesian Statistics
…
# an informative prior based on a clay-court match the two played in the previous year. In that match, Nadal won 46 out of 66 points on his own serve. The standard error of this estimate is 0.05657.
target_mean <- 46/66

alphas <- seq(0.1, 60, length.out = 500)
betas <- (1-target_mean)*alphas/target_mean

param_df <- tibble(alphas, betas)
param_df <- param_df |> mutate(vars = (alphas*betas)/((alphas+betas)^2*(alphas+betas+1)))

target_var <- (.05657)^2

param_df <- param_df |> mutate(dist_to_target = abs(vars - target_var))
param_df

# A tibble: 500 × 4
   alphas  betas   vars dist_to_target
    <dbl>  <dbl>  <dbl>          <dbl>
 1  0.1   0.0435 0.185          0.182 
 2  0.220 0.0957 0.161          0.157 
 3  0.340 0.148  0.142          0.139 
 4  0.460 0.200  0.127          0.124 
 5  0.580 0.252  0.115          0.112 
 6  0.700 0.304  0.105          0.102 
 7  0.820 0.357  0.0970         0.0938
 8  0.940 0.409  0.0899         0.0867
 9  1.06  0.461  0.0838         0.0806
10  1.18  0.513  0.0784         0.0752
# ℹ 490 more rows
…
